<?xml version="1.0" encoding="utf-8"?>
<!DOCTYPE eagle SYSTEM "eagle.dtd">
<eagle version="9.4.2">
<drawing>
<settings>
<setting alwaysvectorfont="no"/>
<setting verticaltext="up"/>
</settings>
<grid distance="10" unitdist="mil" unit="mil" style="lines" multiple="1" display="yes" altdistance="5" altunitdist="mil" altunit="mil"/>
<layers>
<layer number="1" name="Top" color="4" fill="1" visible="yes" active="yes"/>
<layer number="2" name="Route2" color="16" fill="1" visible="no" active="no"/>
<layer number="3" name="Route3" color="17" fill="1" visible="no" active="no"/>
<layer number="4" name="Route4" color="18" fill="1" visible="no" active="no"/>
<layer number="5" name="Route5" color="19" fill="1" visible="no" active="no"/>
<layer number="6" name="Route6" color="25" fill="1" visible="no" active="no"/>
<layer number="7" name="Route7" color="26" fill="1" visible="no" active="no"/>
<layer number="8" name="Route8" color="27" fill="1" visible="no" active="no"/>
<layer number="9" name="Route9" color="28" fill="1" visible="no" active="no"/>
<layer number="10" name="Route10" color="29" fill="1" visible="no" active="no"/>
<layer number="11" name="Route11" color="30" fill="1" visible="no" active="no"/>
<layer number="12" name="Route12" color="20" fill="1" visible="no" active="no"/>
<layer number="13" name="Route13" color="21" fill="1" visible="no" active="no"/>
<layer number="14" name="Route14" color="22" fill="1" visible="no" active="no"/>
<layer number="15" name="Route15" color="23" fill="1" visible="no" active="no"/>
<layer number="16" name="Bottom" color="1" fill="1" visible="yes" active="yes"/>
<layer number="17" name="Pads" color="2" fill="1" visible="yes" active="yes"/>
<layer number="18" name="Vias" color="2" fill="1" visible="yes" active="yes"/>
<layer number="19" name="Unrouted" color="6" fill="1" visible="yes" active="yes"/>
<layer number="20" name="Dimension" color="24" fill="1" visible="yes" active="yes"/>
<layer number="21" name="tPlace" color="7" fill="1" visible="yes" active="yes"/>
<layer number="22" name="bPlace" color="7" fill="1" visible="yes" active="yes"/>
<layer number="23" name="tOrigins" color="15" fill="1" visible="yes" active="yes"/>
<layer number="24" name="bOrigins" color="15" fill="1" visible="yes" active="yes"/>
<layer number="25" name="tNames" color="7" fill="1" visible="yes" active="yes"/>
<layer number="26" name="bNames" color="7" fill="1" visible="yes" active="yes"/>
<layer number="27" name="tValues" color="7" fill="1" visible="yes" active="yes"/>
<layer number="28" name="bValues" color="7" fill="1" visible="yes" active="yes"/>
<layer number="29" name="tStop" color="7" fill="3" visible="no" active="yes"/>
<layer number="30" name="bStop" color="7" fill="6" visible="no" active="yes"/>
<layer number="31" name="tCream" color="7" fill="4" visible="no" active="yes"/>
<layer number="32" name="bCream" color="7" fill="5" visible="no" active="yes"/>
<layer number="33" name="tFinish" color="6" fill="3" visible="no" active="yes"/>
<layer number="34" name="bFinish" color="6" fill="6" visible="no" active="yes"/>
<layer number="35" name="tGlue" color="7" fill="4" visible="no" active="yes"/>
<layer number="36" name="bGlue" color="7" fill="5" visible="no" active="yes"/>
<layer number="37" name="tTest" color="7" fill="1" visible="no" active="yes"/>
<layer number="38" name="bTest" color="7" fill="1" visible="no" active="yes"/>
<layer number="39" name="tKeepout" color="4" fill="11" visible="yes" active="yes"/>
<layer number="40" name="bKeepout" color="1" fill="11" visible="yes" active="yes"/>
<layer number="41" name="tRestrict" color="4" fill="10" visible="yes" active="yes"/>
<layer number="42" name="bRestrict" color="1" fill="10" visible="yes" active="yes"/>
<layer number="43" name="vRestrict" color="2" fill="10" visible="yes" active="yes"/>
<layer number="44" name="Drills" color="7" fill="1" visible="no" active="yes"/>
<layer number="45" name="Holes" color="7" fill="1" visible="no" active="yes"/>
<layer number="46" name="Milling" color="3" fill="1" visible="yes" active="yes"/>
<layer number="47" name="Measures" color="7" fill="1" visible="no" active="yes"/>
<layer number="48" name="Document" color="7" fill="1" visible="yes" active="yes"/>
<layer number="49" name="Reference" color="7" fill="1" visible="yes" active="yes"/>
<layer number="51" name="tDocu" color="7" fill="1" visible="yes" active="yes"/>
<layer number="52" name="bDocu" color="7" fill="1" visible="yes" active="yes"/>
<layer number="88" name="SimResults" color="9" fill="1" visible="no" active="no"/>
<layer number="89" name="SimProbes" color="9" fill="1" visible="no" active="no"/>
<layer number="90" name="Modules" color="5" fill="1" visible="no" active="no"/>
<layer number="91" name="Nets" color="2" fill="1" visible="no" active="no"/>
<layer number="92" name="Busses" color="1" fill="1" visible="no" active="no"/>
<layer number="93" name="Pins" color="2" fill="1" visible="no" active="no"/>
<layer number="94" name="Symbols" color="4" fill="1" visible="no" active="no"/>
<layer number="95" name="Names" color="7" fill="1" visible="no" active="no"/>
<layer number="96" name="Values" color="7" fill="1" visible="no" active="no"/>
<layer number="97" name="Info" color="7" fill="1" visible="no" active="no"/>
<layer number="98" name="Guide" color="6" fill="1" visible="no" active="no"/>
</layers>
<board>
<plain>
<wire x1="19.05" y1="10.16" x2="-1.27" y2="10.16" width="0" layer="20"/>
<wire x1="6.35" y1="7.62" x2="8.128" y2="7.62" width="1.62" layer="46"/>
<wire x1="11.43" y1="7.62" x2="13.208" y2="7.62" width="1.62" layer="46"/>
<wire x1="6.35" y1="5.08" x2="8.128" y2="5.08" width="1.62" layer="46"/>
<wire x1="11.43" y1="5.08" x2="13.208" y2="5.08" width="1.62" layer="46"/>
<wire x1="6.35" y1="2.54" x2="8.128" y2="2.54" width="1.62" layer="46"/>
<wire x1="11.43" y1="2.54" x2="13.208" y2="2.54" width="1.62" layer="46"/>
<wire x1="6.35" y1="7.62" x2="8.128" y2="7.62" width="1.8" layer="39"/>
<wire x1="11.43" y1="7.62" x2="13.208" y2="7.62" width="1.8" layer="39"/>
<wire x1="6.35" y1="5.08" x2="8.128" y2="5.08" width="1.8" layer="39"/>
<wire x1="11.43" y1="5.08" x2="13.208" y2="5.08" width="1.8" layer="39"/>
<wire x1="6.35" y1="2.54" x2="8.128" y2="2.54" width="1.8" layer="39"/>
<wire x1="11.43" y1="2.54" x2="13.208" y2="2.54" width="1.8" layer="39"/>
<wire x1="6.35" y1="7.62" x2="8.128" y2="7.62" width="1.8" layer="40"/>
<wire x1="11.43" y1="7.62" x2="13.208" y2="7.62" width="1.8" layer="40"/>
<wire x1="6.35" y1="5.08" x2="8.128" y2="5.08" width="1.8" layer="40"/>
<wire x1="11.43" y1="5.08" x2="13.208" y2="5.08" width="1.8" layer="40"/>
<wire x1="6.35" y1="2.54" x2="8.128" y2="2.54" width="1.8" layer="40"/>
<wire x1="11.43" y1="2.54" x2="13.208" y2="2.54" width="1.8" layer="40"/>
<wire x1="6.35" y1="7.62" x2="8.128" y2="7.62" width="1.8" layer="41"/>
<wire x1="11.43" y1="7.62" x2="13.208" y2="7.62" width="1.8" layer="41"/>
<wire x1="6.35" y1="5.08" x2="8.128" y2="5.08" width="1.8" layer="41"/>
<wire x1="11.43" y1="5.08" x2="13.208" y2="5.08" width="1.8" layer="41"/>
<wire x1="6.35" y1="2.54" x2="8.128" y2="2.54" width="1.8" layer="41"/>
<wire x1="11.43" y1="2.54" x2="13.208" y2="2.54" width="1.8" layer="41"/>
<wire x1="6.35" y1="7.62" x2="8.128" y2="7.62" width="1.8" layer="42"/>
<wire x1="11.43" y1="7.62" x2="13.208" y2="7.62" width="1.8" layer="42"/>
<wire x1="6.35" y1="5.08" x2="8.128" y2="5.08" width="1.8" layer="42"/>
<wire x1="11.43" y1="5.08" x2="13.208" y2="5.08" width="1.8" layer="42"/>
<wire x1="6.35" y1="2.54" x2="8.128" y2="2.54" width="1.8" layer="42"/>
<wire x1="11.43" y1="2.54" x2="13.208" y2="2.54" width="1.8" layer="42"/>
<wire x1="9.8425" y1="5.715" x2="9.2075" y2="5.08" width="0.3048" layer="21"/>
<wire x1="9.2075" y1="5.08" x2="9.8425" y2="4.445" width="0.3048" layer="21"/>
<wire x1="10.4775" y1="5.715" x2="9.8425" y2="5.08" width="0.3048" layer="21"/>
<wire x1="9.8425" y1="5.08" x2="10.4775" y2="4.445" width="0.3048" layer="21"/>
<wire x1="9.8425" y1="3.175" x2="9.2075" y2="2.54" width="0.3048" layer="21"/>
<wire x1="9.2075" y1="2.54" x2="9.8425" y2="1.905" width="0.3048" layer="21"/>
<wire x1="10.4775" y1="3.175" x2="9.8425" y2="2.54" width="0.3048" layer="21"/>
<wire x1="9.8425" y1="2.54" x2="10.4775" y2="1.905" width="0.3048" layer="21"/>
<wire x1="9.8425" y1="8.255" x2="9.2075" y2="7.62" width="0.3048" layer="21"/>
<wire x1="9.2075" y1="7.62" x2="9.8425" y2="6.985" width="0.3048" layer="21"/>
<wire x1="10.4775" y1="8.255" x2="9.8425" y2="7.62" width="0.3048" layer="21"/>
<wire x1="9.8425" y1="7.62" x2="10.4775" y2="6.985" width="0.3048" layer="21"/>
<text x="4.7625" y="7.62" size="0.8128" layer="21" align="center">V</text>
<text x="4.7625" y="2.54" size="0.8128" layer="21" align="center">G</text>
<text x="4.7625" y="5.08" size="0.8128" layer="21" align="center">DI</text>
<text x="14.605" y="2.54" size="0.8128" layer="21" align="center">G</text>
<text x="14.605" y="7.62" size="0.8128" layer="21" align="center">S</text>
<wire x1="19.3675" y1="8.5725" x2="18.415" y2="7.62" width="0.3048" layer="22"/>
<wire x1="18.415" y1="7.62" x2="19.3675" y2="6.6675" width="0.3048" layer="22"/>
<wire x1="18.415" y1="8.5725" x2="17.4625" y2="7.62" width="0.3048" layer="22"/>
<wire x1="17.4625" y1="7.62" x2="18.415" y2="6.6675" width="0.3048" layer="22"/>
<wire x1="17.4625" y1="8.5725" x2="16.51" y2="7.62" width="0.3048" layer="22"/>
<wire x1="16.51" y1="7.62" x2="17.4625" y2="6.6675" width="0.3048" layer="22"/>
<wire x1="19.3675" y1="3.4925" x2="18.415" y2="2.54" width="0.3048" layer="22"/>
<wire x1="18.415" y1="2.54" x2="19.3675" y2="1.5875" width="0.3048" layer="22"/>
<wire x1="18.415" y1="3.4925" x2="17.4625" y2="2.54" width="0.3048" layer="22"/>
<wire x1="17.4625" y1="2.54" x2="18.415" y2="1.5875" width="0.3048" layer="22"/>
<wire x1="17.4625" y1="3.4925" x2="16.51" y2="2.54" width="0.3048" layer="22"/>
<wire x1="16.51" y1="2.54" x2="17.4625" y2="1.5875" width="0.3048" layer="22"/>
<wire x1="3.4925" y1="8.5725" x2="2.54" y2="7.62" width="0.3048" layer="22"/>
<wire x1="2.54" y1="7.62" x2="3.4925" y2="6.6675" width="0.3048" layer="22"/>
<wire x1="2.54" y1="8.5725" x2="1.5875" y2="7.62" width="0.3048" layer="22"/>
<wire x1="1.5875" y1="7.62" x2="2.54" y2="6.6675" width="0.3048" layer="22"/>
<wire x1="1.5875" y1="8.5725" x2="0.635" y2="7.62" width="0.3048" layer="22"/>
<wire x1="0.635" y1="7.62" x2="1.5875" y2="6.6675" width="0.3048" layer="22"/>
<wire x1="3.4925" y1="6.0325" x2="2.54" y2="5.08" width="0.3048" layer="22"/>
<wire x1="2.54" y1="5.08" x2="3.4925" y2="4.1275" width="0.3048" layer="22"/>
<wire x1="2.54" y1="6.0325" x2="1.5875" y2="5.08" width="0.3048" layer="22"/>
<wire x1="1.5875" y1="5.08" x2="2.54" y2="4.1275" width="0.3048" layer="22"/>
<wire x1="1.5875" y1="6.0325" x2="0.635" y2="5.08" width="0.3048" layer="22"/>
<wire x1="0.635" y1="5.08" x2="1.5875" y2="4.1275" width="0.3048" layer="22"/>
<wire x1="-1.27" y1="10.16" x2="-3.175" y2="8.255" width="0" layer="20"/>
<wire x1="-1.27" y1="0" x2="-3.175" y2="1.905" width="0" layer="20"/>
<wire x1="-3.175" y1="1.905" x2="-3.175" y2="8.255" width="0" layer="20"/>
<wire x1="-1.27" y1="0" x2="19.05" y2="0" width="0" layer="20"/>
<wire x1="19.05" y1="10.16" x2="20.32" y2="8.89" width="0" layer="20"/>
<wire x1="20.32" y1="8.89" x2="20.32" y2="1.27" width="0" layer="20"/>
<wire x1="20.32" y1="1.27" x2="19.05" y2="0" width="0" layer="20"/>
<wire x1="19.3675" y1="6.0325" x2="18.415" y2="5.08" width="0.3048" layer="22"/>
<wire x1="18.415" y1="5.08" x2="19.3675" y2="4.1275" width="0.3048" layer="22"/>
<wire x1="18.415" y1="6.0325" x2="17.4625" y2="5.08" width="0.3048" layer="22"/>
<wire x1="17.4625" y1="5.08" x2="18.415" y2="4.1275" width="0.3048" layer="22"/>
<wire x1="17.4625" y1="6.0325" x2="16.51" y2="5.08" width="0.3048" layer="22"/>
<wire x1="16.51" y1="5.08" x2="17.4625" y2="4.1275" width="0.3048" layer="22"/>
<wire x1="3.4925" y1="3.4925" x2="2.54" y2="2.54" width="0.3048" layer="22"/>
<wire x1="2.54" y1="2.54" x2="3.4925" y2="1.5875" width="0.3048" layer="22"/>
<wire x1="2.54" y1="3.4925" x2="1.5875" y2="2.54" width="0.3048" layer="22"/>
<wire x1="1.5875" y1="2.54" x2="2.54" y2="1.5875" width="0.3048" layer="22"/>
<wire x1="1.5875" y1="3.4925" x2="0.635" y2="2.54" width="0.3048" layer="22"/>
<wire x1="0.635" y1="2.54" x2="1.5875" y2="1.5875" width="0.3048" layer="22"/>
<wire x1="-2.8575" y1="7.62" x2="-0.635" y2="7.62" width="0.3048" layer="21"/>
<wire x1="-0.635" y1="7.62" x2="-0.635" y2="2.54" width="0.3048" layer="21"/>
<wire x1="-0.635" y1="2.54" x2="-2.8575" y2="2.54" width="0.3048" layer="21"/>
<wire x1="6.35" y1="6.858" x2="6.35" y2="8.382" width="0.2032" layer="20" curve="-180"/>
<wire x1="8.128" y1="6.858" x2="8.128" y2="8.382" width="0.2032" layer="20" curve="180"/>
<wire x1="6.35" y1="8.382" x2="8.128" y2="8.382" width="0.2032" layer="20"/>
<wire x1="8.128" y1="6.858" x2="6.35" y2="6.858" width="0.2032" layer="20"/>
<wire x1="11.43" y1="6.858" x2="11.43" y2="8.382" width="0.2032" layer="20" curve="-180"/>
<wire x1="13.208" y1="6.858" x2="13.208" y2="8.382" width="0.2032" layer="20" curve="180"/>
<wire x1="11.43" y1="8.382" x2="13.208" y2="8.382" width="0.2032" layer="20"/>
<wire x1="13.208" y1="6.858" x2="11.43" y2="6.858" width="0.2032" layer="20"/>
<wire x1="6.35" y1="4.318" x2="6.35" y2="5.842" width="0.2032" layer="20" curve="-180"/>
<wire x1="8.128" y1="4.318" x2="8.128" y2="5.842" width="0.2032" layer="20" curve="180"/>
<wire x1="6.35" y1="5.842" x2="8.128" y2="5.842" width="0.2032" layer="20"/>
<wire x1="8.128" y1="4.318" x2="6.35" y2="4.318" width="0.2032" layer="20"/>
<wire x1="11.43" y1="4.318" x2="11.43" y2="5.842" width="0.2032" layer="20" curve="-180"/>
<wire x1="13.208" y1="4.318" x2="13.208" y2="5.842" width="0.2032" layer="20" curve="180"/>
<wire x1="11.43" y1="5.842" x2="13.208" y2="5.842" width="0.2032" layer="20"/>
<wire x1="13.208" y1="4.318" x2="11.43" y2="4.318" width="0.2032" layer="20"/>
<wire x1="6.35" y1="1.778" x2="6.35" y2="3.302" width="0.2032" layer="20" curve="-180"/>
<wire x1="8.128" y1="1.778" x2="8.128" y2="3.302" width="0.2032" layer="20" curve="180"/>
<wire x1="6.35" y1="3.302" x2="8.128" y2="3.302" width="0.2032" layer="20"/>
<wire x1="8.128" y1="1.778" x2="6.35" y2="1.778" width="0.2032" layer="20"/>
<wire x1="11.43" y1="1.778" x2="11.43" y2="3.302" width="0.2032" layer="20" curve="-180"/>
<wire x1="13.208" y1="1.778" x2="13.208" y2="3.302" width="0.2032" layer="20" curve="180"/>
<wire x1="11.43" y1="3.302" x2="13.208" y2="3.302" width="0.2032" layer="20"/>
<wire x1="13.208" y1="1.778" x2="11.43" y2="1.778" width="0.2032" layer="20"/>
</plain>
<libraries>
<library name="Clipper">
<description>Connector Host for NEOPIXEL</description>
<packages>
<package name="NEOSTRIPCONNFLEX">
<description>The flexible connector (also supports 144 led, but less "safe")</description>
<smd name="P2" x="0" y="0" dx="3.81" dy="1.9304" layer="1" roundness="100"/>
<smd name="P3" x="0" y="2.54" dx="3.81" dy="1.9304" layer="1" roundness="100"/>
<smd name="P1" x="0" y="-2.54" dx="3.81" dy="1.9304" layer="1" roundness="100"/>
<wire x1="2.54" y1="5.08" x2="2.54" y2="-5.08" width="0.127" layer="21"/>
<wire x1="2.54" y1="5.08" x2="0.635" y2="5.08" width="0.127" layer="21"/>
<wire x1="2.54" y1="-5.08" x2="0.635" y2="-5.08" width="0.127" layer="21"/>
<polygon width="0.0762" layer="1">
<vertex x="0" y="2.54"/>
<vertex x="-1.905" y="2.54"/>
<vertex x="-1.905" y="4.7625"/>
<vertex x="-0.3175" y="4.7625"/>
<vertex x="0" y="4.445"/>
</polygon>
<polygon width="0.0762" layer="1">
<vertex x="-1.905" y="-2.54"/>
<vertex x="-1.905" y="-4.7625"/>
<vertex x="-0.3175" y="-4.7625"/>
<vertex x="0" y="-4.445"/>
<vertex x="0" y="-2.54"/>
</polygon>
<text x="-1.905" y="5.3975" size="1.27" layer="25">&gt;NAME</text>
<text x="-1.905" y="-6.6675" size="1.27" layer="27">&gt;VALUE</text>
<polygon width="0.2032" layer="29">
<vertex x="-1.905" y="2.54"/>
<vertex x="-1.905" y="4.7625"/>
<vertex x="-0.3175" y="4.7625"/>
<vertex x="0" y="4.445"/>
<vertex x="0" y="2.54"/>
</polygon>
<polygon width="0.2032" layer="29">
<vertex x="-1.905" y="-2.54"/>
<vertex x="-1.905" y="-4.7625"/>
<vertex x="-0.3175" y="-4.7625"/>
<vertex x="0" y="-4.445"/>
<vertex x="0" y="-2.54"/>
</polygon>
<polygon width="0.2032" layer="31">
<vertex x="-1.905" y="2.54"/>
<vertex x="-1.905" y="4.7625"/>
<vertex x="-0.3175" y="4.7625"/>
<vertex x="0" y="4.445"/>
<vertex x="0" y="2.54"/>
</polygon>
<polygon width="0.2032" layer="31">
<vertex x="-1.905" y="-2.54"/>
<vertex x="-1.905" y="-4.7625"/>
<vertex x="-0.3175" y="-4.7625"/>
<vertex x="0" y="-4.445"/>
<vertex x="0" y="-2.54"/>
</polygon>
</package>
<package name="JR254">
<description>GVS JR Futaba</description>
<smd name="V" x="0" y="0" dx="3.81" dy="1.9304" layer="1" roundness="100"/>
<smd name="S" x="0" y="2.54" dx="3.81" dy="1.9304" layer="1" roundness="100"/>
<smd name="G" x="0" y="-2.54" dx="3.81" dy="1.9304" layer="1" roundness="100"/>
</package>
</packages>
</library>
</libraries>
<attributes>
</attributes>
<variantdefs>
</variantdefs>
<classes>
<class number="0" name="default" width="0" drill="0">
</class>
</classes>
<designrules name="default *">
<description language="de">&lt;b&gt;EAGLE Design Rules&lt;/b&gt;
&lt;p&gt;
Die Standard-Design-Rules sind so gewählt, dass sie für 
die meisten Anwendungen passen. Sollte ihre Platine 
besondere Anforderungen haben, treffen Sie die erforderlichen
Einstellungen hier und speichern die Design Rules unter 
einem neuen Namen ab.</description>
<description language="en">&lt;b&gt;EAGLE Design Rules&lt;/b&gt;
&lt;p&gt;
The default Design Rules have been set to cover
a wide range of applications. Your particular design
may have different requirements, so please make the
necessary adjustments and save your customized
design rules under a new name.</description>
<param name="layerSetup" value="(1*16)"/>
<param name="mtCopper" value="0.035mm 0.035mm 0.035mm 0.035mm 0.035mm 0.035mm 0.035mm 0.035mm 0.035mm 0.035mm 0.035mm 0.035mm 0.035mm 0.035mm 0.035mm 0.035mm"/>
<param name="mtIsolate" value="1.5mm 0.15mm 0.2mm 0.15mm 0.2mm 0.15mm 0.2mm 0.15mm 0.2mm 0.15mm 0.2mm 0.15mm 0.2mm 0.15mm 0.2mm"/>
<param name="mdWireWire" value="6mil"/>
<param name="mdWirePad" value="6mil"/>
<param name="mdWireVia" value="6mil"/>
<param name="mdPadPad" value="6mil"/>
<param name="mdPadVia" value="6mil"/>
<param name="mdViaVia" value="6mil"/>
<param name="mdSmdPad" value="6mil"/>
<param name="mdSmdVia" value="6mil"/>
<param name="mdSmdSmd" value="6mil"/>
<param name="mdViaViaSameLayer" value="6mil"/>
<param name="mnLayersViaInSmd" value="2"/>
<param name="mdCopperDimension" value="8mil"/>
<param name="mdDrill" value="6mil"/>
<param name="mdSmdStop" value="0mil"/>
<param name="msWidth" value="6mil"/>
<param name="msDrill" value="0.35mm"/>
<param name="msMicroVia" value="9.99mm"/>
<param name="msBlindViaRatio" value="0.5"/>
<param name="rvPadTop" value="0.25"/>
<param name="rvPadInner" value="0.25"/>
<param name="rvPadBottom" value="0.25"/>
<param name="rvViaOuter" value="0.25"/>
<param name="rvViaInner" value="0.25"/>
<param name="rvMicroViaOuter" value="0.25"/>
<param name="rvMicroViaInner" value="0.25"/>
<param name="rlMinPadTop" value="10mil"/>
<param name="rlMaxPadTop" value="20mil"/>
<param name="rlMinPadInner" value="10mil"/>
<param name="rlMaxPadInner" value="20mil"/>
<param name="rlMinPadBottom" value="10mil"/>
<param name="rlMaxPadBottom" value="20mil"/>
<param name="rlMinViaOuter" value="8mil"/>
<param name="rlMaxViaOuter" value="20mil"/>
<param name="rlMinViaInner" value="8mil"/>
<param name="rlMaxViaInner" value="20mil"/>
<param name="rlMinMicroViaOuter" value="4mil"/>
<param name="rlMaxMicroViaOuter" value="20mil"/>
<param name="rlMinMicroViaInner" value="4mil"/>
<param name="rlMaxMicroViaInner" value="20mil"/>
<param name="psTop" value="-1"/>
<param name="psBottom" value="-1"/>
<param name="psFirst" value="-1"/>
<param name="psElongationLong" value="100"/>
<param name="psElongationOffset" value="100"/>
<param name="mvStopFrame" value="1"/>
<param name="mvCreamFrame" value="0"/>
<param name="mlMinStopFrame" value="4mil"/>
<param name="mlMaxStopFrame" value="4mil"/>
<param name="mlMinCreamFrame" value="0mil"/>
<param name="mlMaxCreamFrame" value="0mil"/>
<param name="mlViaStopLimit" value="0mil"/>
<param name="srRoundness" value="0"/>
<param name="srMinRoundness" value="0mil"/>
<param name="srMaxRoundness" value="0mil"/>
<param name="slThermalIsolate" value="20mil"/>
<param name="slThermalsForVias" value="1"/>
<param name="dpMaxLengthDifference" value="10mm"/>
<param name="dpGapFactor" value="2.5"/>
<param name="checkAngle" value="0"/>
<param name="checkFont" value="1"/>
<param name="checkRestrict" value="1"/>
<param name="checkStop" value="0"/>
<param name="checkValues" value="0"/>
<param name="checkNames" value="1"/>
<param name="checkWireStubs" value="1"/>
<param name="checkPolygonWidth" value="0"/>
<param name="useDiameter" value="13"/>
<param name="maxErrors" value="50"/>
</designrules>
<autorouter>
<pass name="Default">
<param name="RoutingGrid" value="50mil"/>
<param name="AutoGrid" value="1"/>
<param name="Efforts" value="0"/>
<param name="TopRouterVariant" value="1"/>
<param name="tpViaShape" value="round"/>
<param name="PrefDir.1" value="a"/>
<param name="PrefDir.2" value="0"/>
<param name="PrefDir.3" value="0"/>
<param name="PrefDir.4" value="0"/>
<param name="PrefDir.5" value="0"/>
<param name="PrefDir.6" value="0"/>
<param name="PrefDir.7" value="0"/>
<param name="PrefDir.8" value="0"/>
<param name="PrefDir.9" value="0"/>
<param name="PrefDir.10" value="0"/>
<param name="PrefDir.11" value="0"/>
<param name="PrefDir.12" value="0"/>
<param name="PrefDir.13" value="0"/>
<param name="PrefDir.14" value="0"/>
<param name="PrefDir.15" value="0"/>
<param name="PrefDir.16" value="a"/>
<param name="cfVia" value="8"/>
<param name="cfNonPref" value="5"/>
<param name="cfChangeDir" value="2"/>
<param name="cfOrthStep" value="2"/>
<param name="cfDiagStep" value="3"/>
<param name="cfExtdStep" value="0"/>
<param name="cfBonusStep" value="1"/>
<param name="cfMalusStep" value="1"/>
<param name="cfPadImpact" value="4"/>
<param name="cfSmdImpact" value="4"/>
<param name="cfBusImpact" value="0"/>
<param name="cfHugging" value="3"/>
<param name="cfAvoid" value="4"/>
<param name="cfPolygon" value="10"/>
<param name="cfBase.1" value="0"/>
<param name="cfBase.2" value="1"/>
<param name="cfBase.3" value="1"/>
<param name="cfBase.4" value="1"/>
<param name="cfBase.5" value="1"/>
<param name="cfBase.6" value="1"/>
<param name="cfBase.7" value="1"/>
<param name="cfBase.8" value="1"/>
<param name="cfBase.9" value="1"/>
<param name="cfBase.10" value="1"/>
<param name="cfBase.11" value="1"/>
<param name="cfBase.12" value="1"/>
<param name="cfBase.13" value="1"/>
<param name="cfBase.14" value="1"/>
<param name="cfBase.15" value="1"/>
<param name="cfBase.16" value="0"/>
<param name="mnVias" value="20"/>
<param name="mnSegments" value="9999"/>
<param name="mnExtdSteps" value="9999"/>
<param name="mnRipupLevel" value="10"/>
<param name="mnRipupSteps" value="100"/>
<param name="mnRipupTotal" value="100"/>
</pass>
<pass name="Follow-me" refer="Default" active="yes">
</pass>
<pass name="Busses" refer="Default" active="yes">
<param name="cfNonPref" value="4"/>
<param name="cfBusImpact" value="4"/>
<param name="cfHugging" value="0"/>
<param name="mnVias" value="0"/>
</pass>
<pass name="Route" refer="Default" active="yes">
</pass>
<pass name="Optimize1" refer="Default" active="yes">
<param name="cfVia" value="99"/>
<param name="cfExtdStep" value="10"/>
<param name="cfHugging" value="1"/>
<param name="mnExtdSteps" value="1"/>
<param name="mnRipupLevel" value="0"/>
</pass>
<pass name="Optimize2" refer="Optimize1" active="yes">
<param name="cfNonPref" value="0"/>
<param name="cfChangeDir" value="6"/>
<param name="cfExtdStep" value="0"/>
<param name="cfBonusStep" value="2"/>
<param name="cfMalusStep" value="2"/>
<param name="cfPadImpact" value="2"/>
<param name="cfSmdImpact" value="2"/>
<param name="cfHugging" value="0"/>
</pass>
<pass name="Optimize3" refer="Optimize2" active="yes">
<param name="cfChangeDir" value="8"/>
<param name="cfPadImpact" value="0"/>
<param name="cfSmdImpact" value="0"/>
</pass>
<pass name="Optimize4" refer="Optimize3" active="yes">
<param name="cfChangeDir" value="25"/>
</pass>
</autorouter>
<elements>
<element name="U$1" library="Clipper" package="NEOSTRIPCONNFLEX" value="NEOPIXELCONNDIVERSITILE" x="2.286" y="5.08" smashed="yes"/>
<element name="U$2" library="Clipper" package="JR254" value="JR254PAD254" x="17.78" y="5.08" smashed="yes"/>
</elements>
<signals>
<signal name="DI">
<contactref element="U$2" pad="S"/>
<contactref element="U$1" pad="P2"/>
<wire x1="2.286" y1="5.08" x2="3.81" y2="5.08" width="0.62" layer="1"/>
<wire x1="3.81" y1="5.08" x2="5.08" y2="6.35" width="0.6096" layer="1"/>
<wire x1="5.08" y1="6.35" x2="13.97" y2="6.35" width="0.6096" layer="1"/>
<wire x1="13.97" y1="6.35" x2="15.24" y2="7.62" width="0.6096" layer="1"/>
<wire x1="15.24" y1="7.62" x2="17.78" y2="7.62" width="0.62" layer="1"/>
</signal>
<signal name="GND">
<contactref element="U$1" pad="P1"/>
<contactref element="U$2" pad="G"/>
<wire x1="2.286" y1="2.54" x2="2.8575" y2="2.54" width="1.8" layer="1"/>
<wire x1="2.286" y1="2.54" x2="3.4925" y2="2.54" width="1.2192" layer="1"/>
<wire x1="14.7828" y1="0.8128" x2="16.51" y2="2.54" width="1.2192" layer="1"/>
<wire x1="16.51" y1="2.54" x2="17.78" y2="2.54" width="1.2192" layer="1"/>
<wire x1="3.4925" y1="2.54" x2="5.2197" y2="0.8128" width="1.2192" layer="1"/>
<wire x1="5.2197" y1="0.8128" x2="14.7828" y2="0.8128" width="1.2192" layer="1"/>
<polygon width="0.6096" layer="1">
<vertex x="-0.9525" y="9.525"/>
<vertex x="-2.54" y="7.9375"/>
<vertex x="-2.54" y="2.2225"/>
<vertex x="-0.9525" y="0.635"/>
<vertex x="19.05" y="0.635"/>
<vertex x="19.685" y="1.27"/>
<vertex x="19.685" y="8.89"/>
<vertex x="19.05" y="9.525"/>
</polygon>
</signal>
<signal name="VCC">
<contactref element="U$2" pad="V"/>
<contactref element="U$1" pad="P3"/>
<wire x1="2.286" y1="7.62" x2="3.4925" y2="7.62" width="1.2192" layer="1"/>
<wire x1="3.4925" y1="7.62" x2="5.08" y2="9.2075" width="1.2192" layer="1"/>
<wire x1="5.08" y1="9.2075" x2="9.2075" y2="9.2075" width="1.2192" layer="1"/>
<via x="9.2075" y="9.2075" extent="1-16" drill="0.35" diameter="1.2"/>
<wire x1="9.2075" y1="9.2075" x2="13.97" y2="9.2075" width="1.2192" layer="16"/>
<wire x1="14.9225" y1="8.255" x2="14.9225" y2="5.3975" width="1.2192" layer="16"/>
<wire x1="13.97" y1="9.2075" x2="14.9225" y2="8.255" width="1.2192" layer="16"/>
<via x="14.9225" y="5.3975" extent="1-16" drill="0.35" diameter="1.2"/>
<wire x1="17.78" y1="5.08" x2="15.24" y2="5.08" width="1.2192" layer="1"/>
<wire x1="15.24" y1="5.08" x2="14.9225" y2="5.3975" width="1.2192" layer="1"/>
<polygon width="0.6096" layer="16">
<vertex x="19.685" y="8.89"/>
<vertex x="19.05" y="9.525"/>
<vertex x="-0.9525" y="9.525"/>
<vertex x="-2.54" y="7.9375"/>
<vertex x="-2.54" y="2.2225"/>
<vertex x="-0.9525" y="0.635"/>
<vertex x="19.05" y="0.635"/>
<vertex x="19.685" y="1.27"/>
</polygon>
</signal>
</signals>
<mfgpreviewcolors>
<mfgpreviewcolor name="soldermaskcolor" color="0xC8008000"/>
<mfgpreviewcolor name="silkscreencolor" color="0xFFFEFEFE"/>
<mfgpreviewcolor name="backgroundcolor" color="0xFF282828"/>
<mfgpreviewcolor name="coppercolor" color="0xFFFFBF00"/>
<mfgpreviewcolor name="substratecolor" color="0xFF786E46"/>
</mfgpreviewcolors>
</board>
</drawing>
</eagle>
