G04 EAGLE Gerber RS-274X export*
G75*
%MOMM*%
%FSLAX34Y34*%
%LPD*%
%INTop Copper*%
%IPPOS*%
%AMOC8*
5,1,8,0,0,1.08239X$1,22.5*%
G01*
%ADD10C,1.930400*%
%ADD11C,0.620000*%
%ADD12C,0.609600*%
%ADD13C,1.800000*%
%ADD14C,1.219200*%
%ADD15C,1.200000*%

G36*
X19759Y2812D02*
X19759Y2812D01*
X19834Y2825D01*
X19844Y2832D01*
X19854Y2834D01*
X19883Y2858D01*
X19954Y2906D01*
X20425Y3377D01*
X20509Y3367D01*
X20741Y3322D01*
X20977Y3315D01*
X21082Y3303D01*
X24638Y3303D01*
X24714Y3309D01*
X24790Y3307D01*
X24959Y3329D01*
X25130Y3343D01*
X25204Y3361D01*
X25279Y3371D01*
X25443Y3420D01*
X25609Y3461D01*
X25678Y3491D01*
X25752Y3513D01*
X25905Y3589D01*
X26062Y3656D01*
X26126Y3697D01*
X26195Y3730D01*
X26334Y3829D01*
X26478Y3921D01*
X26535Y3972D01*
X26597Y4016D01*
X26718Y4136D01*
X26846Y4250D01*
X26894Y4309D01*
X26948Y4363D01*
X27049Y4501D01*
X27156Y4634D01*
X27193Y4700D01*
X27238Y4761D01*
X27315Y4914D01*
X27400Y5062D01*
X27426Y5134D01*
X27461Y5202D01*
X27512Y5365D01*
X27571Y5525D01*
X27586Y5600D01*
X27609Y5672D01*
X27621Y5777D01*
X27666Y6009D01*
X27673Y6245D01*
X27685Y6350D01*
X27685Y20575D01*
X46206Y20575D01*
X45500Y18870D01*
X44534Y17197D01*
X43358Y15665D01*
X41993Y14300D01*
X40461Y13124D01*
X38788Y12158D01*
X37004Y11419D01*
X35138Y10919D01*
X33224Y10667D01*
X31369Y10667D01*
X31293Y10661D01*
X31217Y10663D01*
X31048Y10641D01*
X30877Y10627D01*
X30803Y10609D01*
X30728Y10599D01*
X30564Y10550D01*
X30398Y10509D01*
X30329Y10479D01*
X30255Y10457D01*
X30102Y10381D01*
X29945Y10314D01*
X29881Y10273D01*
X29812Y10240D01*
X29673Y10141D01*
X29529Y10049D01*
X29472Y9998D01*
X29410Y9954D01*
X29289Y9834D01*
X29161Y9720D01*
X29113Y9661D01*
X29059Y9607D01*
X28958Y9469D01*
X28851Y9336D01*
X28814Y9270D01*
X28769Y9209D01*
X28692Y9056D01*
X28607Y8908D01*
X28581Y8836D01*
X28546Y8768D01*
X28495Y8605D01*
X28436Y8445D01*
X28421Y8370D01*
X28398Y8298D01*
X28386Y8193D01*
X28341Y7961D01*
X28334Y7725D01*
X28322Y7620D01*
X28322Y6350D01*
X28328Y6274D01*
X28326Y6198D01*
X28348Y6029D01*
X28362Y5858D01*
X28380Y5784D01*
X28390Y5709D01*
X28439Y5545D01*
X28480Y5379D01*
X28510Y5310D01*
X28532Y5236D01*
X28608Y5083D01*
X28675Y4926D01*
X28716Y4862D01*
X28749Y4793D01*
X28848Y4654D01*
X28940Y4510D01*
X28991Y4453D01*
X29035Y4391D01*
X29155Y4270D01*
X29269Y4142D01*
X29328Y4094D01*
X29382Y4040D01*
X29520Y3939D01*
X29653Y3832D01*
X29719Y3795D01*
X29780Y3750D01*
X29933Y3673D01*
X30081Y3588D01*
X30153Y3562D01*
X30221Y3527D01*
X30384Y3476D01*
X30544Y3417D01*
X30619Y3402D01*
X30691Y3379D01*
X30796Y3367D01*
X31028Y3322D01*
X31264Y3315D01*
X31369Y3303D01*
X189666Y3303D01*
X189780Y3312D01*
X189894Y3311D01*
X190025Y3332D01*
X190158Y3343D01*
X190268Y3370D01*
X190381Y3388D01*
X190507Y3429D01*
X190636Y3461D01*
X190741Y3506D01*
X190850Y3542D01*
X190968Y3603D01*
X191090Y3656D01*
X191186Y3717D01*
X191287Y3770D01*
X191361Y3829D01*
X191506Y3921D01*
X191748Y4137D01*
X191821Y4195D01*
X193602Y5977D01*
X193725Y6121D01*
X193853Y6261D01*
X193884Y6309D01*
X193921Y6353D01*
X194020Y6515D01*
X194123Y6674D01*
X194147Y6726D01*
X194176Y6775D01*
X194246Y6951D01*
X194324Y7125D01*
X194338Y7180D01*
X194359Y7233D01*
X194400Y7418D01*
X194448Y7602D01*
X194454Y7659D01*
X194466Y7715D01*
X194477Y7904D01*
X194494Y8094D01*
X194490Y8151D01*
X194494Y8207D01*
X194473Y8396D01*
X194460Y8586D01*
X194447Y8641D01*
X194441Y8698D01*
X194391Y8881D01*
X194348Y9066D01*
X194326Y9119D01*
X194311Y9174D01*
X194232Y9346D01*
X194159Y9522D01*
X194129Y9570D01*
X194105Y9622D01*
X193999Y9780D01*
X193899Y9941D01*
X193861Y9984D01*
X193830Y10031D01*
X193699Y10170D01*
X193575Y10313D01*
X193531Y10349D01*
X193492Y10391D01*
X193341Y10507D01*
X193195Y10628D01*
X193146Y10657D01*
X193100Y10691D01*
X192933Y10781D01*
X192769Y10877D01*
X192716Y10898D01*
X192666Y10924D01*
X192486Y10986D01*
X192309Y11054D01*
X192253Y11066D01*
X192199Y11084D01*
X192012Y11116D01*
X191826Y11155D01*
X191769Y11158D01*
X191713Y11167D01*
X191522Y11168D01*
X191333Y11176D01*
X191288Y11170D01*
X191219Y11170D01*
X190732Y11093D01*
X190689Y11079D01*
X190658Y11075D01*
X190078Y10919D01*
X188164Y10667D01*
X182625Y10667D01*
X182625Y23622D01*
X182619Y23698D01*
X182621Y23774D01*
X182599Y23943D01*
X182585Y24114D01*
X182567Y24187D01*
X182557Y24263D01*
X182508Y24427D01*
X182467Y24592D01*
X182437Y24662D01*
X182415Y24735D01*
X182339Y24889D01*
X182272Y25046D01*
X182231Y25110D01*
X182198Y25178D01*
X182099Y25318D01*
X182007Y25462D01*
X181956Y25519D01*
X181912Y25581D01*
X181792Y25702D01*
X181678Y25830D01*
X181619Y25878D01*
X181565Y25932D01*
X181427Y26032D01*
X181294Y26140D01*
X181228Y26177D01*
X181167Y26222D01*
X181014Y26299D01*
X180866Y26384D01*
X180794Y26410D01*
X180726Y26444D01*
X180563Y26496D01*
X180403Y26555D01*
X180328Y26570D01*
X180256Y26593D01*
X180151Y26605D01*
X179919Y26650D01*
X179683Y26657D01*
X179578Y26669D01*
X179069Y26669D01*
X179069Y27178D01*
X179063Y27254D01*
X179065Y27330D01*
X179043Y27499D01*
X179029Y27670D01*
X179011Y27744D01*
X179001Y27819D01*
X178951Y27983D01*
X178910Y28149D01*
X178880Y28218D01*
X178858Y28292D01*
X178783Y28445D01*
X178716Y28602D01*
X178675Y28666D01*
X178641Y28735D01*
X178543Y28874D01*
X178451Y29018D01*
X178400Y29075D01*
X178356Y29137D01*
X178236Y29258D01*
X178122Y29386D01*
X178063Y29434D01*
X178009Y29488D01*
X177871Y29589D01*
X177738Y29696D01*
X177672Y29733D01*
X177610Y29778D01*
X177458Y29855D01*
X177309Y29940D01*
X177238Y29966D01*
X177170Y30001D01*
X177007Y30052D01*
X176847Y30111D01*
X176772Y30126D01*
X176700Y30149D01*
X176595Y30161D01*
X176363Y30206D01*
X176127Y30213D01*
X176022Y30225D01*
X154454Y30225D01*
X155160Y31930D01*
X156126Y33603D01*
X157302Y35135D01*
X158667Y36500D01*
X160249Y37714D01*
X160426Y37875D01*
X160602Y38032D01*
X160608Y38039D01*
X160615Y38045D01*
X160764Y38232D01*
X160912Y38416D01*
X160917Y38424D01*
X160923Y38431D01*
X161039Y38638D01*
X161156Y38844D01*
X161159Y38853D01*
X161164Y38861D01*
X161245Y39084D01*
X161328Y39307D01*
X161330Y39316D01*
X161333Y39325D01*
X161377Y39558D01*
X161422Y39791D01*
X161423Y39800D01*
X161424Y39810D01*
X161430Y40048D01*
X161438Y40284D01*
X161437Y40293D01*
X161437Y40303D01*
X161404Y40538D01*
X161373Y40773D01*
X161371Y40782D01*
X161369Y40792D01*
X161300Y41018D01*
X161231Y41246D01*
X161227Y41254D01*
X161224Y41263D01*
X161118Y41476D01*
X161014Y41689D01*
X161009Y41696D01*
X161004Y41705D01*
X160865Y41899D01*
X160728Y42091D01*
X160722Y42098D01*
X160716Y42105D01*
X160549Y42273D01*
X160382Y42442D01*
X160374Y42448D01*
X160367Y42454D01*
X160175Y42593D01*
X159983Y42732D01*
X159975Y42737D01*
X159967Y42742D01*
X159754Y42848D01*
X159543Y42955D01*
X159534Y42957D01*
X159525Y42962D01*
X159300Y43031D01*
X159072Y43103D01*
X159064Y43104D01*
X159054Y43107D01*
X158565Y43174D01*
X158460Y43172D01*
X158394Y43179D01*
X150884Y43179D01*
X148083Y44339D01*
X146316Y46106D01*
X146219Y46189D01*
X145941Y46426D01*
X145940Y46426D01*
X145518Y46680D01*
X145207Y46805D01*
X145060Y46863D01*
X144737Y46935D01*
X144578Y46970D01*
X144419Y46979D01*
X144086Y46998D01*
X143595Y46945D01*
X143296Y46863D01*
X143119Y46815D01*
X142706Y46625D01*
X142671Y46609D01*
X142471Y46475D01*
X142262Y46334D01*
X141902Y45996D01*
X141831Y45903D01*
X141779Y45851D01*
X138903Y42244D01*
X135998Y40845D01*
X135900Y40788D01*
X135797Y40739D01*
X135687Y40663D01*
X135572Y40596D01*
X135485Y40523D01*
X135391Y40459D01*
X135295Y40366D01*
X135193Y40281D01*
X135118Y40195D01*
X135035Y40116D01*
X134956Y40010D01*
X134868Y39909D01*
X134808Y39813D01*
X134740Y39721D01*
X134679Y39603D01*
X134609Y39490D01*
X134565Y39385D01*
X134512Y39284D01*
X134471Y39157D01*
X134420Y39034D01*
X134394Y38923D01*
X134358Y38815D01*
X134337Y38683D01*
X134307Y38554D01*
X134299Y38440D01*
X134282Y38328D01*
X134282Y38194D01*
X134273Y38062D01*
X134284Y37948D01*
X134285Y37834D01*
X134307Y37703D01*
X134319Y37571D01*
X134348Y37460D01*
X134367Y37348D01*
X134410Y37222D01*
X134444Y37093D01*
X134490Y36989D01*
X134527Y36881D01*
X134590Y36764D01*
X134644Y36642D01*
X134707Y36547D01*
X134761Y36446D01*
X134842Y36341D01*
X134914Y36230D01*
X134992Y36146D01*
X135061Y36055D01*
X135158Y35964D01*
X135248Y35866D01*
X135337Y35796D01*
X135421Y35717D01*
X135500Y35667D01*
X135635Y35561D01*
X135919Y35404D01*
X135998Y35355D01*
X138903Y33956D01*
X141939Y30148D01*
X143023Y25400D01*
X141939Y20652D01*
X138903Y16844D01*
X134515Y14731D01*
X111865Y14731D01*
X107477Y16844D01*
X104441Y20652D01*
X103357Y25400D01*
X104441Y30148D01*
X107477Y33956D01*
X110382Y35355D01*
X110480Y35412D01*
X110583Y35461D01*
X110693Y35537D01*
X110808Y35604D01*
X110896Y35677D01*
X110989Y35742D01*
X111085Y35834D01*
X111187Y35919D01*
X111263Y36005D01*
X111345Y36084D01*
X111424Y36190D01*
X111512Y36291D01*
X111572Y36387D01*
X111640Y36479D01*
X111701Y36597D01*
X111771Y36710D01*
X111815Y36815D01*
X111868Y36917D01*
X111909Y37043D01*
X111960Y37166D01*
X111986Y37277D01*
X112022Y37385D01*
X112043Y37517D01*
X112073Y37646D01*
X112081Y37760D01*
X112098Y37873D01*
X112098Y38006D01*
X112107Y38138D01*
X112096Y38252D01*
X112095Y38366D01*
X112073Y38497D01*
X112061Y38629D01*
X112032Y38740D01*
X112013Y38852D01*
X111970Y38978D01*
X111936Y39107D01*
X111890Y39211D01*
X111853Y39319D01*
X111790Y39436D01*
X111736Y39558D01*
X111673Y39653D01*
X111619Y39754D01*
X111538Y39859D01*
X111466Y39970D01*
X111388Y40054D01*
X111319Y40145D01*
X111222Y40236D01*
X111132Y40334D01*
X111043Y40405D01*
X110959Y40483D01*
X110880Y40533D01*
X110745Y40639D01*
X110461Y40796D01*
X110382Y40845D01*
X107477Y42244D01*
X104441Y46052D01*
X103357Y50800D01*
X104362Y55202D01*
X104386Y55371D01*
X104419Y55539D01*
X104421Y55615D01*
X104432Y55690D01*
X104429Y55862D01*
X104434Y56032D01*
X104424Y56107D01*
X104423Y56183D01*
X104392Y56352D01*
X104370Y56521D01*
X104348Y56594D01*
X104334Y56669D01*
X104277Y56830D01*
X104227Y56994D01*
X104194Y57062D01*
X104168Y57133D01*
X104085Y57283D01*
X104010Y57437D01*
X103967Y57499D01*
X103930Y57565D01*
X103824Y57700D01*
X103725Y57839D01*
X103672Y57893D01*
X103624Y57953D01*
X103498Y58068D01*
X103378Y58190D01*
X103317Y58235D01*
X103261Y58286D01*
X103117Y58380D01*
X102979Y58480D01*
X102912Y58515D01*
X102848Y58556D01*
X102691Y58626D01*
X102539Y58703D01*
X102467Y58725D01*
X102397Y58756D01*
X102232Y58800D01*
X102069Y58851D01*
X102009Y58858D01*
X101920Y58881D01*
X101429Y58927D01*
X101406Y58926D01*
X101391Y58927D01*
X94189Y58927D01*
X94019Y58913D01*
X93848Y58908D01*
X93773Y58893D01*
X93698Y58887D01*
X93532Y58846D01*
X93364Y58813D01*
X93293Y58787D01*
X93219Y58769D01*
X93061Y58701D01*
X92901Y58642D01*
X92835Y58604D01*
X92765Y58574D01*
X92621Y58482D01*
X92472Y58398D01*
X92413Y58350D01*
X92349Y58309D01*
X92222Y58195D01*
X92089Y58088D01*
X92038Y58031D01*
X91981Y57980D01*
X91874Y57847D01*
X91760Y57720D01*
X91719Y57655D01*
X91671Y57596D01*
X91587Y57448D01*
X91495Y57304D01*
X91465Y57234D01*
X91427Y57168D01*
X91368Y57007D01*
X91301Y56850D01*
X91282Y56776D01*
X91256Y56705D01*
X91223Y56538D01*
X91182Y56371D01*
X91176Y56295D01*
X91161Y56221D01*
X91156Y56050D01*
X91142Y55880D01*
X91149Y55820D01*
X91146Y55728D01*
X91210Y55239D01*
X91217Y55218D01*
X91218Y55202D01*
X92223Y50800D01*
X91139Y46052D01*
X88103Y42244D01*
X85198Y40845D01*
X85100Y40788D01*
X84997Y40739D01*
X84887Y40663D01*
X84772Y40596D01*
X84684Y40523D01*
X84591Y40458D01*
X84495Y40366D01*
X84393Y40281D01*
X84317Y40195D01*
X84235Y40116D01*
X84156Y40010D01*
X84068Y39909D01*
X84008Y39813D01*
X83940Y39721D01*
X83879Y39603D01*
X83809Y39490D01*
X83765Y39385D01*
X83712Y39283D01*
X83671Y39157D01*
X83620Y39034D01*
X83594Y38923D01*
X83558Y38815D01*
X83537Y38683D01*
X83507Y38554D01*
X83499Y38440D01*
X83482Y38327D01*
X83482Y38194D01*
X83473Y38062D01*
X83484Y37948D01*
X83485Y37834D01*
X83507Y37703D01*
X83519Y37571D01*
X83548Y37460D01*
X83567Y37348D01*
X83610Y37222D01*
X83644Y37093D01*
X83690Y36989D01*
X83727Y36881D01*
X83790Y36764D01*
X83844Y36642D01*
X83907Y36547D01*
X83961Y36446D01*
X84042Y36341D01*
X84114Y36230D01*
X84192Y36146D01*
X84261Y36055D01*
X84358Y35964D01*
X84448Y35866D01*
X84537Y35795D01*
X84621Y35717D01*
X84700Y35667D01*
X84835Y35561D01*
X85119Y35404D01*
X85198Y35355D01*
X88103Y33956D01*
X91139Y30148D01*
X92223Y25400D01*
X91139Y20652D01*
X88103Y16844D01*
X83715Y14731D01*
X61065Y14731D01*
X56677Y16844D01*
X53641Y20652D01*
X52884Y23966D01*
X52835Y24123D01*
X52816Y24263D01*
X52810Y24284D01*
X52808Y24300D01*
X52557Y25400D01*
X52808Y26500D01*
X52832Y26669D01*
X52865Y26837D01*
X52868Y26913D01*
X52878Y26988D01*
X52875Y27160D01*
X52881Y27330D01*
X52871Y27405D01*
X52869Y27481D01*
X52838Y27650D01*
X52816Y27819D01*
X52794Y27892D01*
X52781Y27967D01*
X52723Y28128D01*
X52674Y28292D01*
X52640Y28360D01*
X52615Y28431D01*
X52532Y28581D01*
X52457Y28735D01*
X52413Y28797D01*
X52376Y28863D01*
X52270Y28998D01*
X52171Y29137D01*
X52118Y29191D01*
X52071Y29251D01*
X51945Y29366D01*
X51825Y29488D01*
X51763Y29533D01*
X51707Y29584D01*
X51564Y29678D01*
X51426Y29778D01*
X51358Y29813D01*
X51294Y29854D01*
X51138Y29924D01*
X50985Y30001D01*
X50913Y30023D01*
X50843Y30054D01*
X50678Y30098D01*
X50515Y30149D01*
X50456Y30156D01*
X50366Y30179D01*
X49875Y30225D01*
X49853Y30224D01*
X49837Y30225D01*
X24638Y30225D01*
X24562Y30219D01*
X24486Y30221D01*
X24317Y30199D01*
X24146Y30185D01*
X24073Y30167D01*
X23997Y30157D01*
X23833Y30108D01*
X23668Y30067D01*
X23598Y30037D01*
X23525Y30015D01*
X23371Y29939D01*
X23214Y29872D01*
X23150Y29831D01*
X23082Y29798D01*
X22942Y29699D01*
X22860Y29646D01*
X22798Y29696D01*
X22732Y29733D01*
X22670Y29778D01*
X22518Y29855D01*
X22369Y29940D01*
X22298Y29966D01*
X22230Y30001D01*
X22067Y30052D01*
X21907Y30111D01*
X21832Y30126D01*
X21760Y30149D01*
X21655Y30161D01*
X21423Y30206D01*
X21187Y30213D01*
X21082Y30225D01*
X-486Y30225D01*
X220Y31930D01*
X1186Y33603D01*
X2362Y35135D01*
X3727Y36500D01*
X5259Y37676D01*
X5320Y37711D01*
X5507Y37841D01*
X5696Y37968D01*
X5710Y37981D01*
X5726Y37992D01*
X5889Y38149D01*
X6056Y38306D01*
X6067Y38321D01*
X6081Y38334D01*
X6218Y38517D01*
X6356Y38697D01*
X6365Y38714D01*
X6376Y38729D01*
X6482Y38931D01*
X6589Y39132D01*
X6595Y39150D01*
X6604Y39166D01*
X6675Y39383D01*
X6749Y39598D01*
X6753Y39617D01*
X6758Y39635D01*
X6794Y39860D01*
X6832Y40085D01*
X6832Y40104D01*
X6835Y40122D01*
X6834Y40350D01*
X6835Y40578D01*
X6832Y40597D01*
X6832Y40616D01*
X6794Y40840D01*
X6758Y41065D01*
X6752Y41084D01*
X6749Y41102D01*
X6676Y41316D01*
X6604Y41534D01*
X6595Y41551D01*
X6589Y41569D01*
X6482Y41769D01*
X6376Y41972D01*
X6366Y41984D01*
X6356Y42003D01*
X6056Y42395D01*
X5988Y42458D01*
X5951Y42505D01*
X3987Y44469D01*
X2285Y48577D01*
X2285Y53023D01*
X3987Y57131D01*
X7131Y60275D01*
X8120Y60685D01*
X8154Y60702D01*
X8190Y60715D01*
X8373Y60814D01*
X8559Y60910D01*
X8589Y60932D01*
X8623Y60951D01*
X8787Y61078D01*
X8956Y61203D01*
X8982Y61230D01*
X9012Y61253D01*
X9154Y61406D01*
X9300Y61556D01*
X9322Y61587D01*
X9348Y61615D01*
X9463Y61789D01*
X9583Y61960D01*
X9600Y61994D01*
X9621Y62026D01*
X9707Y62217D01*
X9797Y62404D01*
X9808Y62441D01*
X9823Y62476D01*
X9877Y62677D01*
X9937Y62878D01*
X9941Y62916D01*
X9951Y62952D01*
X9972Y63160D01*
X9998Y63367D01*
X9996Y63405D01*
X10000Y63443D01*
X9987Y63651D01*
X9979Y63860D01*
X9972Y63898D01*
X9969Y63936D01*
X9923Y64138D01*
X9882Y64344D01*
X9868Y64379D01*
X9860Y64417D01*
X9781Y64610D01*
X9707Y64805D01*
X9688Y64838D01*
X9674Y64874D01*
X9565Y65052D01*
X9460Y65232D01*
X9436Y65262D01*
X9416Y65294D01*
X9281Y65452D01*
X9148Y65614D01*
X9119Y65639D01*
X9095Y65668D01*
X8935Y65802D01*
X8778Y65941D01*
X8746Y65961D01*
X8717Y65985D01*
X8635Y66030D01*
X8360Y66203D01*
X8202Y66270D01*
X8120Y66315D01*
X7131Y66725D01*
X3987Y69869D01*
X2276Y73999D01*
X2256Y74127D01*
X2245Y74259D01*
X2218Y74370D01*
X2200Y74483D01*
X2159Y74609D01*
X2127Y74738D01*
X2082Y74843D01*
X2046Y74951D01*
X1985Y75069D01*
X1932Y75191D01*
X1904Y75235D01*
X1904Y95250D01*
X1898Y95326D01*
X1900Y95402D01*
X1878Y95571D01*
X1864Y95742D01*
X1846Y95816D01*
X1836Y95891D01*
X1787Y96055D01*
X1746Y96221D01*
X1716Y96290D01*
X1694Y96364D01*
X1618Y96517D01*
X1551Y96674D01*
X1510Y96738D01*
X1477Y96807D01*
X1378Y96946D01*
X1286Y97090D01*
X1235Y97147D01*
X1191Y97209D01*
X1071Y97330D01*
X957Y97458D01*
X898Y97506D01*
X845Y97560D01*
X706Y97661D01*
X574Y97768D01*
X507Y97805D01*
X446Y97850D01*
X293Y97927D01*
X145Y98012D01*
X73Y98038D01*
X5Y98073D01*
X-158Y98124D01*
X-318Y98183D01*
X-393Y98198D01*
X-465Y98221D01*
X-570Y98233D01*
X-802Y98278D01*
X-1038Y98285D01*
X-1143Y98297D01*
X-9525Y98297D01*
X-9639Y98288D01*
X-9753Y98289D01*
X-9884Y98268D01*
X-10017Y98257D01*
X-10127Y98230D01*
X-10240Y98212D01*
X-10367Y98171D01*
X-10496Y98139D01*
X-10600Y98094D01*
X-10709Y98058D01*
X-10827Y97996D01*
X-10949Y97944D01*
X-11045Y97883D01*
X-11147Y97830D01*
X-11220Y97771D01*
X-11365Y97679D01*
X-11607Y97463D01*
X-11680Y97405D01*
X-27555Y81530D01*
X-27629Y81443D01*
X-27710Y81362D01*
X-27788Y81255D01*
X-27874Y81154D01*
X-27933Y81056D01*
X-28000Y80964D01*
X-28060Y80845D01*
X-28129Y80731D01*
X-28171Y80625D01*
X-28223Y80523D01*
X-28263Y80396D01*
X-28312Y80273D01*
X-28337Y80162D01*
X-28371Y80053D01*
X-28381Y79959D01*
X-28419Y79792D01*
X-28437Y79467D01*
X-28447Y79375D01*
X-28447Y22225D01*
X-28438Y22111D01*
X-28439Y21997D01*
X-28418Y21866D01*
X-28407Y21733D01*
X-28380Y21623D01*
X-28362Y21510D01*
X-28321Y21383D01*
X-28289Y21254D01*
X-28244Y21150D01*
X-28208Y21041D01*
X-28146Y20923D01*
X-28094Y20801D01*
X-28033Y20705D01*
X-27980Y20603D01*
X-27921Y20530D01*
X-27829Y20385D01*
X-27613Y20143D01*
X-27555Y20070D01*
X-11680Y4195D01*
X-11593Y4121D01*
X-11512Y4040D01*
X-11405Y3962D01*
X-11304Y3876D01*
X-11206Y3817D01*
X-11114Y3750D01*
X-10995Y3690D01*
X-10881Y3621D01*
X-10775Y3579D01*
X-10673Y3527D01*
X-10546Y3487D01*
X-10423Y3438D01*
X-10312Y3413D01*
X-10203Y3379D01*
X-10109Y3369D01*
X-9942Y3331D01*
X-9617Y3313D01*
X-9525Y3303D01*
X-4699Y3303D01*
X-4623Y3309D01*
X-4547Y3307D01*
X-4378Y3329D01*
X-4207Y3343D01*
X-4133Y3361D01*
X-4058Y3371D01*
X-3894Y3420D01*
X-3728Y3461D01*
X-3659Y3491D01*
X-3585Y3513D01*
X-3432Y3589D01*
X-3275Y3656D01*
X-3211Y3697D01*
X-3142Y3730D01*
X-3003Y3829D01*
X-2859Y3921D01*
X-2802Y3972D01*
X-2740Y4016D01*
X-2619Y4136D01*
X-2491Y4250D01*
X-2443Y4309D01*
X-2389Y4363D01*
X-2288Y4501D01*
X-2181Y4634D01*
X-2144Y4700D01*
X-2099Y4761D01*
X-2022Y4914D01*
X-1937Y5062D01*
X-1911Y5134D01*
X-1876Y5202D01*
X-1825Y5365D01*
X-1766Y5525D01*
X-1751Y5600D01*
X-1728Y5672D01*
X-1716Y5777D01*
X-1671Y6009D01*
X-1664Y6245D01*
X-1652Y6350D01*
X-1652Y20575D01*
X3430Y20575D01*
X3430Y3175D01*
X3441Y3125D01*
X3443Y3074D01*
X3461Y3042D01*
X3469Y3006D01*
X3502Y2967D01*
X3526Y2922D01*
X3556Y2901D01*
X3579Y2873D01*
X3626Y2852D01*
X3668Y2822D01*
X3710Y2814D01*
X3738Y2802D01*
X3768Y2803D01*
X3810Y2795D01*
X19685Y2795D01*
X19759Y2812D01*
G37*
G36*
X22910Y75831D02*
X22910Y75831D01*
X22961Y75833D01*
X22993Y75851D01*
X23029Y75859D01*
X23068Y75892D01*
X23113Y75916D01*
X23134Y75946D01*
X23162Y75969D01*
X23183Y76016D01*
X23213Y76058D01*
X23221Y76100D01*
X23233Y76128D01*
X23232Y76158D01*
X23240Y76200D01*
X23240Y95250D01*
X23227Y95307D01*
X23227Y95313D01*
X23225Y95317D01*
X23223Y95324D01*
X23210Y95399D01*
X23203Y95409D01*
X23201Y95419D01*
X23177Y95448D01*
X23129Y95519D01*
X19954Y98694D01*
X19889Y98734D01*
X19827Y98778D01*
X19815Y98780D01*
X19807Y98785D01*
X19770Y98789D01*
X19685Y98805D01*
X3810Y98805D01*
X3760Y98794D01*
X3709Y98792D01*
X3677Y98774D01*
X3641Y98766D01*
X3602Y98733D01*
X3557Y98709D01*
X3536Y98679D01*
X3508Y98656D01*
X3487Y98609D01*
X3457Y98567D01*
X3449Y98525D01*
X3437Y98497D01*
X3438Y98467D01*
X3430Y98425D01*
X3430Y76200D01*
X3441Y76150D01*
X3443Y76099D01*
X3461Y76067D01*
X3469Y76031D01*
X3502Y75992D01*
X3526Y75947D01*
X3556Y75926D01*
X3579Y75898D01*
X3626Y75877D01*
X3668Y75847D01*
X3710Y75839D01*
X3738Y75827D01*
X3768Y75828D01*
X3810Y75820D01*
X22860Y75820D01*
X22910Y75831D01*
G37*
%LPC*%
G36*
X167436Y10667D02*
X167436Y10667D01*
X165522Y10919D01*
X163656Y11419D01*
X161872Y12158D01*
X160199Y13124D01*
X158667Y14300D01*
X157302Y15665D01*
X156126Y17197D01*
X155160Y18870D01*
X154454Y20575D01*
X172975Y20575D01*
X172975Y10667D01*
X167436Y10667D01*
G37*
%LPD*%
D10*
X13462Y50800D02*
X32258Y50800D01*
X32258Y76200D02*
X13462Y76200D01*
X13462Y25400D02*
X32258Y25400D01*
X168402Y50800D02*
X187198Y50800D01*
X187198Y76200D02*
X168402Y76200D01*
X168402Y25400D02*
X187198Y25400D01*
D11*
X38100Y50800D02*
X22860Y50800D01*
D12*
X38100Y50800D02*
X50800Y63500D01*
X139700Y63500D01*
X152400Y76200D01*
D11*
X177800Y76200D01*
D13*
X28575Y25400D02*
X22860Y25400D01*
D14*
X34925Y25400D01*
X147828Y8128D02*
X165100Y25400D01*
X177800Y25400D01*
X52197Y8128D02*
X34925Y25400D01*
X52197Y8128D02*
X147828Y8128D01*
X34925Y76200D02*
X22860Y76200D01*
X34925Y76200D02*
X50800Y92075D01*
X92075Y92075D01*
D15*
X92075Y92075D03*
X149225Y53975D03*
D14*
X152400Y50800D02*
X177800Y50800D01*
X152400Y50800D02*
X149225Y53975D01*
M02*
