Partlist exported from D:/Documents/eagle/projects/NeoStripClipper/BoardDout2.sch at 07/30/2019 12:11

Qty Value                   Device                  Package          Parts Description                                          
1   JR254PAD254             JR254PAD254             JR254            U$2   Laying down version of JR connector ( Single sided ) 
1   NEOPIXELCONNDOVERSITILE NEOPIXELCONNDOVERSITILE NEOSTRIPCONNFLEX U$1   NEOPIXELDINPCB                                       
